{
	"screenWidth": "4000",
	"screenHeight": "2000",
	"scale": "auto",
	"scaleMethod": "fit",
	"fileCounter": 21,
	"fileList": [
		{
			"type": "text",
			"id": 0,
			"name": "index",
			"ext": "html",
			"filePath": "index.html"
		},
		{
			"type": "text",
			"id": 1,
			"name": "game",
			"ext": "js",
			"filePath": "js/game.js"
		},
		{
			"type": "text",
			"id": 2,
			"name": "resources",
			"ext": "js",
			"filePath": "js/resources.js"
		},
		{
			"type": "level",
			"id": 3,
			"name": "level",
			"ext": "json",
			"filePath": "data/map/level.json",
			"preview": {
				"src": "prj-data/p3.png"
			}
		},
		{
			"type": "tileset",
			"id": 4,
			"name": "tileset",
			"ext": "json",
			"filePath": "data/map/tileset.json",
			"preview": {
				"src": "data/image/jalan.png"
			}
		},
		{
			"type": "image",
			"id": 5,
			"name": "jalan",
			"ext": "png",
			"filePath": "data/image/jalan.png"
		},
		{
			"type": "image",
			"id": 6,
			"name": "player75x96",
			"ext": "png",
			"filePath": "data/image/player75x96.png"
		},
		{
			"type": "object",
			"id": 8,
			"name": "player",
			"ext": "js",
			"filePath": "js/entities/player.js",
			"options": {
				"extend": "entity"
			},
			"preview": {
				"src": "data/image/player75x96.png",
				"region": {
					"x": 0,
					"y": 0,
					"width": 75,
					"height": 96
				}
			}
		},
		{
			"type": "audio",
			"id": 9,
			"name": "game_play",
			"ext": "mp3",
			"filePath": "data/audio/game_play.mp3"
		},
		{
			"type": "image",
			"id": 10,
			"name": "tower-god",
			"ext": "png",
			"filePath": "data/image/tower-god.png"
		},
		{
			"type": "object",
			"id": 11,
			"name": "tower",
			"ext": "js",
			"filePath": "js/entities/tower.js",
			"options": {
				"extend": "entity"
			},
			"preview": {
				"src": "data/image/tower-god.png",
				"region": {
					"x": 0,
					"y": 0,
					"width": 256,
					"height": 342
				}
			}
		},
		{
			"type": "image",
			"id": 12,
			"name": "player-spawner",
			"ext": "png",
			"filePath": "data/image/player-spawner.png"
		},
		{
			"type": "object",
			"id": 16,
			"name": "playerSpawner",
			"ext": "js",
			"filePath": "js/entities/playerSpawner.js",
			"options": {
				"extend": "gui"
			},
			"preview": {
				"src": "data/image/player-spawner.png",
				"region": {
					"x": 0,
					"y": 0,
					"width": 248,
					"height": 192
				}
			}
		},
		{
			"type": "image",
			"id": 17,
			"name": "start-button",
			"ext": "png",
			"filePath": "data/image/start-button.png"
		},
		{
			"type": "level",
			"id": 18,
			"name": "menu",
			"ext": "json",
			"filePath": "data/map/menu.json",
			"options": {},
			"preview": {
				"src": "prj-data/p18.png"
			}
		},
		{
			"type": "object",
			"id": 19,
			"name": "playButton",
			"ext": "js",
			"filePath": "js/entities/playButton.js",
			"options": {
				"extend": "gui"
			},
			"preview": {
				"src": "data/image/start-button.png",
				"region": {
					"x": 0,
					"y": 0,
					"width": 1072,
					"height": 497
				}
			}
		},
		{
			"type": "object",
			"id": 20,
			"name": "tower2",
			"ext": "js",
			"filePath": "js/entities/tower2.js",
			"options": {
				"extend": "entity"
			},
			"preview": null
		}
	],
	"defaultLevel": 3
}